quintet – R Coding Workshop: 2nd Meeting
…
Why tibble object?

Try uncomment the first line of the code!

# print(bookban_df)

as_tibble(bookban_df)

# A tibble: 931 × 17
   title      book_id author date        year removed explicit antifamily occult
   <chr>      <fct>   <chr>  <date>     <dbl> <fct>   <fct>    <fct>      <fct> 
 1 House of … 927     Allen… 2005-04-01  2005 0       1        0          1     
 2 It's Not … 1024    Harri… 2008-02-06  2008 1       0        0          0     
 3 King Stork 1087    Pyle,… 2008-10-02  2008 0       0        0          0     
 4 How They … 936     Levit… 2008-10-05  2008 0       0        0          0     
 5 Ghost in … 764     Masam… 2008-10-02  2008 0       0        0          0     
 6 King Stork 1087    Pyle,… 2003-09-13  2003 0       0        0          0     
 7 Queer      1489    Gage,… 2003-09-13  2003 0       0        0          0     
 8 Witness    2023    Hesse… 2003-09-13  2003 0       0        0          0     
 9 It's Perf… 1025    Harri… 2001-12-22  2001 0       1        0          0     
10 Brimstone… 318     Koert… 2006-01-30  2006 1       0        1          0     
# ℹ 921 more rows
# ℹ 8 more variables: language <fct>, lgbtq <fct>, violent <fct>, state <chr>,
#   political_value_index <dbl>, median_income <dbl>, hs_grad_rate <dbl>,
#   college_grad_rate <dbl>
…
